^C:\USERS\АДРИАНА\DOCUMENTS\VISUAL STUDIO 2015\PROJECTS\LABB6\LABB6\MAIN.CPP
/c /ZI /nologo /W3 /WX- /sdl /Od /Oy- /D WIN32 /D _DEBUG /D _CONSOLE /D _UNICODE /D UNICODE /Gm /EHsc /RTC1 /MDd /GS /fp:precise /Zc:wchar_t /Zc:forScope /Zc:inline /Fo"DEBUG\\" /Fd"DEBUG\VC140.PDB" /Gd /TP /analyze- C:\USERS\АДРИАНА\DOCUMENTS\VISUAL STUDIO 2015\PROJECTS\LABB6\LABB6\MAIN.CPP
^C:\USERS\АДРИАНА\DOCUMENTS\VISUAL STUDIO 2015\PROJECTS\LABB6\LABB6\STRUCT.CPP
/c /ZI /nologo /W3 /WX- /sdl /Od /Oy- /D WIN32 /D _DEBUG /D _CONSOLE /D _UNICODE /D UNICODE /Gm /EHsc /RTC1 /MDd /GS /fp:precise /Zc:wchar_t /Zc:forScope /Zc:inline /Fo"DEBUG\\" /Fd"DEBUG\VC140.PDB" /Gd /TP /analyze- C:\USERS\АДРИАНА\DOCUMENTS\VISUAL STUDIO 2015\PROJECTS\LABB6\LABB6\STRUCT.CPP
